Verilog/Grupo-3-Digitales-II-2-2022-main/Grupo-3-Digitales-II-2-2022-main/Tests/Synchronization/SYNC.vcd
$date
	Sat Nov 26 10:55:03 2022
$end
$version
	Icarus Verilog
$end
$timescale
	1s
$end
$scope module testbench $end
$var wire 1 ! sync_status $end
$var wire 1 " rxeven $end
$var wire 10 # rx_code_groupIN [9:0] $end
$var wire 1 $ mr_main_reset $end
$var wire 10 % SUDI [9:0] $end
$var wire 1 & GTX_CLK $end
$scope module SYNC $end
$var wire 10 ' rx_code_groupIN [9:0] $end
$var wire 1 $ mr_main_reset $end
$var wire 1 & GTX_CLK $end
$var parameter 7 ( ACQUIRE_SYNC_1 $end
$var parameter 7 ) ACQUIRE_SYNC_2 $end
$var parameter 7 * COMMA_DETECT_1 $end
$var parameter 7 + COMMA_DETECT_2 $end
$var parameter 7 , COMMA_DETECT_3 $end
$var parameter 7 - LOSS_OF_SYNC $end
$var parameter 7 . SYNC_ACQUIRED_1 $end
$var reg 10 / SUDI [9:0] $end
$var reg 7 0 currentCodeComma [6:0] $end
$var reg 7 1 estado [6:0] $end
$var reg 1 2 isCOMMA $end
$var reg 1 3 isDIddle $end
$var reg 1 4 isDValid $end
$var reg 1 " rxeven $end
$var reg 7 5 sgtestado [6:0] $end
$var reg 1 6 sgtrxeven $end
$var reg 1 ! sync_status $end
$upscope $end
$scope module test $end
$var wire 10 7 SUDI [9:0] $end
$var wire 1 " rxeven $end
$var wire 1 ! sync_status $end
$var reg 1 & GTX_CLK $end
$var reg 1 $ mr_main_reset $end
$var reg 10 8 rx_code_groupIN [9:0] $end
$upscope $end
$upscope $end
$enddefinitions $end
$comment Show the parameter values. $end
$dumpall
b1000000 .
b1 -
b100000 ,
b1000 +
b10 *
b10000 )
b100 (
$end
#0
$dumpvars
bx 8
bx 7
16
b1 5
04
03
02
b1 1
bx 0
bx /
bx '
1&
bx %
1$
bx #
0"
0!
$end
#4
0&
#8
1&
#12
0&
#16
1&
#20
0&
#24
1&
#28
0&
#32
1&
#36
0&
#40
b101010 0
b101010101 %
b101010101 /
b101010101 7
1"
1&
b101010101 #
b101010101 '
b101010101 8
#44
0&
#48
b1010101 0
b1010101010 %
b1010101010 /
b1010101010 7
1&
b1010101010 #
b1010101010 '
b1010101010 8
#52
0&
#56
b1111111 0
b1111111111 %
b1111111111 /
b1111111111 7
1&
b1111111111 #
b1111111111 '
b1111111111 8
#60
0&
#64
b0 0
b0 %
b0 /
b0 7
1&
b0 #
b0 '
b0 8
#68
0&
#72
b1111100 0
b1111100000 %
b1111100000 /
b1111100000 7
1&
b1111100000 #
b1111100000 '
b1111100000 8
#76
0&
#80
b11 0
b11111 %
b11111 /
b11111 7
1&
b11111 #
b11111 '
b11111 8
#84
0&
#88
06
b10 5
12
b1100000 0
b1100000101 %
b1100000101 /
b1100000101 7
1&
b1100000101 #
b1100000101 '
b1100000101 8
#92
0&
#96
b10 1
16
13
02
b1010010 0
b1010010110 %
b1010010110 /
b1010010110 7
b100 5
0"
1&
b1010010110 #
b1010010110 '
b1010010110 8
#100
0&
#104
06
b100 1
03
12
b11111 0
b11111010 %
b11111010 /
b11111010 7
b1000 5
1"
1&
b11111010 #
b11111010 '
b11111010 8
#108
0&
#112
b1000 1
16
13
02
b110110 0
b110110101 %
b110110101 /
b110110101 7
b10000 5
0"
1&
b110110101 #
b110110101 '
b110110101 8
#116
0&
#120
06
b10000 1
03
12
b1100000 0
b1100000101 %
b1100000101 /
b1100000101 7
b100000 5
1"
1&
b1100000101 #
b1100000101 '
b1100000101 8
#124
0&
#128
16
b100000 1
13
02
b1010010 0
b1010010110 %
b1010010110 /
b1010010110 7
b1000000 5
0"
1&
b1010010110 #
b1010010110 '
b1010010110 8
#132
0&
#136
b1000000 1
06
03
b110001 0
b110001011 %
b110001011 /
b110001011 7
b1 5
1"
1&
b110001011 #
b110001011 '
b110001011 8
#140
0&
#144
16
b1 1
b1000101 0
b1000101011 %
b1000101011 /
b1000101011 7
b1 5
0"
1&
b1000101011 #
b1000101011 '
b1000101011 8
#148
0&
#152
b100101 0
b100101011 %
b100101011 /
b100101011 7
1"
1&
b100101011 #
b100101011 '
b100101011 8
#156
0&
#160
b1100010 0
b1100010100 %
b1100010100 /
b1100010100 7
1&
b1100010100 #
b1100010100 '
b1100010100 8
#164
0&
#168
b10101 0
b10101011 %
b10101011 /
b10101011 7
1&
b10101011 #
b10101011 '
b10101011 8
#172
0&
#176
b1010010 0
b1010010100 %
b1010010100 /
b1010010100 7
1&
b1010010100 #
b1010010100 '
b1010010100 8
#180
0&
#184
b110010 0
b110010100 %
b110010100 /
b110010100 7
1&
b110010100 #
b110010100 '
b110010100 8
#188
0&
#192
b1110 0
b1110100 %
b1110100 /
b1110100 7
1&
b1110100 #
b1110100 '
b1110100 8
#196
0&
#200
14
b1001110 0
b1001110100 %
b1001110100 /
b1001110100 7
1&
b1001110100 #
b1001110100 '
b1001110100 8
#204
0&
#208
b111010 0
b111010100 %
b111010100 /
b111010100 7
1&
b111010100 #
b111010100 '
b111010100 8
#212
0&
#216
b1011010 0
b1011010100 %
b1011010100 /
b1011010100 7
1&
b1011010100 #
b1011010100 '
b1011010100 8
#220
0&
#224
b1100011 0
b1100011011 %
b1100011011 /
b1100011011 7
1&
b1100011011 #
b1100011011 '
b1100011011 8
#228
0&
#232
b1101010 0
b1101010100 %
b1101010100 /
b1101010100 7
1&
b1101010100 #
b1101010100 '
b1101010100 8
#236
0&
#240
1&
0$
#244
0&
#248
b1010011 0
16
b1010011011 %
b1010011011 /
b1010011011 7
0"
1&
b1010011011 #
b1010011011 '
b1010011011 8
#252
0&
#256
b110011 0
16
b110011011 %
b110011011 /
b110011011 7
1&
b110011011 #
b110011011 '
b110011011 8
#260
0&
#264
b1110001 0
16
b1110001011 %
b1110001011 /
b1110001011 7
1&
b1110001011 #
b1110001011 '
b1110001011 8
#268
0&
#272
04
b1111111 0
16
b1111111111 %
b1111111111 /
b1111111111 7
1&
b1111111111 #
b1111111111 '
b1111111111 8
#276
0&
#280
b0 0
16
b0 %
b0 /
b0 7
1&
b0 #
b0 '
b0 8
#284
0&
#288
b1111100 0
b1111100000 %
b1111100000 /
b1111100000 7
16
1&
b1111100000 #
b1111100000 '
b1111100000 8
